3 Manipulação de Dados Tabulares – Bases de Dados Institucionais Brasileiras
…
Neste capítulo, o foco está nos pacotes dplyr e readr, que cobrem as operações mais frequentes na etapa de manipulação de dados tabulares.

3.1.2 Leitura de arquivos CSV com read_csv()

O R base oferece a função read.csv() para leitura de arquivos CSV. O pacote readr, parte do tidyverse, oferece a alternativa read_csv(). O código abaixo mostra como usar cada uma delas para ler o arquivo escolha_modal.csv:

em1 <- read.csv("escolha_modal.csv")
em2 <- read_csv("escolha_modal.csv")

Embora ambas façam a leitura do mesmo arquivo, o comportamento ao imprimir os objetos é diferente. em1 é um data frame convencional e, caso a base de dados tenha muitas linhas, ao digitá-lo no console, o R imprimirá centenas delas, fazendo com que tenhamos de subir bastante a barra de rolagem à direita para verificar o nome das suas colunas. Já em2 é do tipo tibble. Ao imprimi-lo, aparecem apenas as primeiras dez linhas e apenas as colunas que cabem na largura do console, além dos tipos de cada variável logo abaixo dos nomes das colunas (como <chr> para texto, <dbl> para número real e <int> para inteiro). Observe abaixo:

em2

# A tibble: 1,000 × 7
   sexo  idade renda posse_auto modo_viagem    dist_viagem tempo_viagem
   <chr> <dbl> <dbl> <chr>      <chr>                <dbl>        <dbl>
 1 F        34  3797 N          "Carro ou App"        14.3           27
 2 F        43  3515 N          "Carro ou App"        36.1           55
 3 F        55  4791 S          "TP"                  26.9           64
 4 F        45  2749 N          "A p\xe9"              2.9           26
 5 M        45  2929 N          "Carro ou App"        20.6           44
 6 M        36  2011 N          "TP"                  22.6           58
 7 F        18  1084 N          "TP"                  29.6           83
 8 F        31  2338 N          "TP"                  26.9           63
 9 M        53  7473 S          "Carro ou App"        18.3           39
10 M        40  2786 N          "Carro ou App"        36.8           57
# ℹ 990 more rows
…
# A tibble: 0 × 7
# ℹ 7 variables: sexo <fct>, idade <dbl>, renda <dbl>, posse_auto <fct>,
#   modo_viagem <fct>, dist_viagem <dbl>, tempo_viagem <dbl>

O operador %in% verifica se o valor está contido em um vetor de opções, sendo uma alternativa mais limpa a múltiplas condições com |.

3.3 Seleção de Colunas

A seleção de colunas permite manter apenas as variáveis relevantes para a análise, facilitando a leitura do código e reduzindo o uso de memória. No dplyr, usamos a função select().

Para selecionar apenas as colunas tipo_veic e velocidade de vel:

vel |> select(tipo_veic, velocidade)

# A tibble: 500 × 2
   tipo_veic       velocidade
   <chr>                <dbl>
 1 Passeio                 54
 2 Caminhão/Ônibus         50
 3 Passeio                 56
 4 Moto                    43
 5 SUV/Pickup              57
 6 Caminhão/Ônibus         50
 7 Passeio                 55
 8 SUV/Pickup              64
 9 Passeio                 53
10 Passeio                 58
# ℹ 490 more rows

Para remover uma coluna, basta preceder o nome com -:

vel |> select(-velocidade)

# A tibble: 500 × 2
   faixa tipo_veic      
   <chr> <chr>          
 1 Cen   Passeio        
 2 Cen   Caminhão/Ônibus
 3 Cen   Passeio        
 4 Dir   Moto           
 5 Esq   SUV/Pickup     
 6 Cen   Caminhão/Ônibus
 7 Esq   Passeio        
 8 Esq   SUV/Pickup     
 9 Esq   Passeio        
10 Cen   Passeio        
# ℹ 490 more rows

O select() também pode ser usado para reordenar colunas. Ao listar as colunas na nova ordem desejada, o resultado terá as colunas nessa sequência:

vel |> select(velocidade, tipo_veic)

# A tibble: 500 × 2
   velocidade tipo_veic      
        <dbl> <chr>          
 1         54 Passeio        
 2         50 Caminhão/Ônibus
 3         56 Passeio        
 4         43 Moto           
 5         57 SUV/Pickup     
 6         50 Caminhão/Ônibus
 7         55 Passeio        
 8         64 SUV/Pickup     
 9         53 Passeio        
10         58 Passeio        
# ℹ 490 more rows

Quando as colunas a selecionar estão armazenadas em um vetor de strings, usamos a função auxiliar all_of():

colunas <- c("tipo_veic", "velocidade")
vel |> select(all_of(colunas))

# A tibble: 500 × 2
   tipo_veic       velocidade
   <chr>                <dbl>
 1 Passeio                 54
 2 Caminhão/Ônibus         50
 3 Passeio                 56
 4 Moto                    43
 5 SUV/Pickup              57
 6 Caminhão/Ônibus         50
 7 Passeio                 55
 8 SUV/Pickup              64
 9 Passeio                 53
10 Passeio                 58
# ℹ 490 more rows

3.4 Ordenação de Linhas

A ordenação de linhas reordena as observações de uma tabela com base nos valores de uma ou mais colunas. No dplyr, usamos a função arrange().

Para ordenar vel pela velocidade em ordem crescente:

vel |> arrange(velocidade)

# A tibble: 500 × 3
   faixa tipo_veic       velocidade
   <chr> <chr>                <dbl>
 1 Dir   Caminhão/Ônibus         38
 2 Dir   Caminhão/Ônibus         40
 3 Dir   Moto                    40
 4 Dir   Caminhão/Ônibus         41
 5 Dir   Moto                    41
 6 Dir   Caminhão/Ônibus         41
 7 Dir   Moto                    42
 8 Dir   Caminhão/Ônibus         42
 9 Dir   Caminhão/Ônibus         42
10 Dir   Moto                    42
# ℹ 490 more rows

Para ordenar em ordem decrescente, usamos a função auxiliar desc():

vel |> arrange(desc(velocidade))

# A tibble: 500 × 3
   faixa tipo_veic  velocidade
   <chr> <chr>           <dbl>
 1 Esq   SUV/Pickup         66
 2 Esq   Passeio            65
 3 Esq   Passeio            65
 4 Esq   Passeio            65
 5 Esq   SUV/Pickup         64
 6 Esq   Passeio            64
 7 Esq   Passeio            64
 8 Esq   Passeio            63
 9 Esq   Passeio            63
10 Esq   Passeio            63
# ℹ 490 more rows

É possível ordenar por múltiplas colunas. O código abaixo ordena primeiro por tipo_veic (em ordem alfabética) e, dentro de cada tipo, por velocidade em ordem decrescente:

vel |> arrange(tipo_veic, desc(velocidade))

# A tibble: 500 × 3
   faixa tipo_veic       velocidade
   <chr> <chr>                <dbl>
 1 Cen   Caminhão/Ônibus         56
 2 Cen   Caminhão/Ônibus         55
 3 Cen   Caminhão/Ônibus         54
 4 Cen   Caminhão/Ônibus         53
 5 Esq   Caminhão/Ônibus         53
 6 Cen   Caminhão/Ônibus         52
 7 Cen   Caminhão/Ônibus         52
 8 Dir   Caminhão/Ônibus         52
 9 Cen   Caminhão/Ônibus         52
10 Cen   Caminhão/Ônibus         52
# ℹ 490 more rows

Observe que a ordenação de tipo_veic segue a ordem alfabética, o que não reflete uma sequência lógica em termos de porte do veículo. A ordem natural seria Moto, Passeio, SUV/Pickup e Caminhão/Ônibus. Para impor essa ordem, convertemos tipo_veic em factor com os níveis na sequência desejada:

vel <- vel |> mutate(
  tipo_veic = factor(
    tipo_veic,
    levels = c("Moto", "Passeio", "SUV/Pickup", "Caminhão/Ônibus")
  )
)

Ao ordenar novamente por tipo_veic, o resultado seguirá a ordem dos níveis definidos:

vel |> arrange(tipo_veic)

# A tibble: 500 × 3
   faixa tipo_veic velocidade
   <chr> <fct>          <dbl>
 1 Dir   Moto              43
 2 Dir   Moto              42
 3 Dir   Moto              46
 4 Dir   Moto              46
 5 Dir   Moto              46
 6 Cen   Moto              51
 7 Dir   Moto              43
 8 Dir   Moto              45
 9 Cen   Moto              48
10 Dir   Moto              43
# ℹ 490 more rows
…
# A tibble: 4 × 2
  tipo_veic       peso_kg
  <chr>             <dbl>
1 Moto                120
2 Passeio            1300
3 SUV/Pickup         2000
4 Caminhão/Ônibus   16000

Para incorporar essa informação à base vel, usamos left_join(), função do dplyr que mantém todas as linhas da tabela à esquerda (vel) e adiciona as colunas da tabela à direita (pesos) para as linhas com correspondência:

vel |> left_join(pesos, by = "tipo_veic")

# A tibble: 500 × 6
   faixa tipo_veic       velocidade acim60 veic_pesado peso_kg
   <chr> <chr>                <dbl> <lgl>  <chr>         <dbl>
 1 Cen   Passeio                 54 FALSE  N              1300
 2 Cen   Caminhão/Ônibus         50 FALSE  S             16000
 3 Cen   Passeio                 56 FALSE  N              1300
 4 Dir   Moto                    43 FALSE  N               120
 5 Esq   SUV/Pickup              57 FALSE  N              2000
 6 Cen   Caminhão/Ônibus         50 FALSE  S             16000
 7 Esq   Passeio                 55 FALSE  N              1300
 8 Esq   SUV/Pickup              64 TRUE   N              2000
 9 Esq   Passeio                 53 FALSE  N              1300
10 Cen   Passeio                 58 FALSE  N              1300
# ℹ 490 more rows
…
